{
  "jekyllDir": "PUT_YOUR_JEKYLL_DIRECTORY_HERE",
  cfToken": "PUT_YOUR_CLOUDFLARE_TOKEN_HERE",
  "cfEmail": "PUT_YOUR_CLOUDFLARE_EMAIL_HERE",
  "cfDomain": "PUT_YOUR_CLOUDFLARE_DOMAIN_HERE",
  "sitemap": "PUT_YOUR_SITEMAP_URL_HERE"
}
